75 8
34
34
3
54
3
42
45
2
2
3
85
4
4
34
65
34
34
34
3
54
3
42
45
2
2
3
85
4
4
34
65
34
34
3
54
3
42
45
2
2
3
85
4
4
34
65
34
34
3
54
3
42
45
2
2
3
85
4
4
34
65
34
34
3
54
3
42
45
2
2
3
85
4
4
34
65
34
34
3
54
3
42
45
2
2
3
85
4
4
34
65
34
34
3
54
3
42
45
2
2
3
85
4
4
34
65
34
34
3
54
3
42
45
2
2
3
85
4
4
34
65
34
34
34
3
54
3
42
45
2
2
3
85
4
4
34
65
34
34
34
3
54
3
42
45
2
2
3
85
4
4
34
65
34
34
34
3
54
3
42
45
2
2
3
85
4
4
34
65
34
34
34
3
54
3
42
45
2
2
3
85
4
4
34
65
34
34
34
3
54
3
42
45
2
2
3
85
4
4
34
65
34
34
34
3
54
3
42
45
2
2
3
85
4
4
34
65
34
34
34
3
54
3
42
45
2
2
3
85
4
4
34
65
34
34
34
3
54
3
42
45
2
2
3
85
4
4
34
65
34
34
34
3
54
3
42
45
2
2
3
85
4
4
34
65
34
34
34
3
54
3
42
45
2
2
3
85
4
4
34
65
34
34
34
3
54
3
42
45
2
2
3
85
4
4
34
65
34
34
34
3
54
3
42
45
2
2
3
85
4
4
34
65
34
34
34
3
54
3
42
45
2
2
3
85
4
4
34
65
34
34
34
3
54
3
42
45
2
2
3
85
4
4
34
65
34
34
34
3
54
3
42
45
2
2
3
85
4
4
34
65
34
34
34
3
54
3
42
45
2
2
3
85
4
4
34
65
34